,atis_flight,atis_flight_time,atis_airfare,atis_aircraft,atis_ground_service,atis_airline,atis_abbreviation,atis_quantity,Fallback
atis_flight,7,0,0,1,0,0,0,1,1
atis_flight_time,1,7,0,0,0,0,0,1,1
atis_airfare,0,1,7,0,0,0,0,0,2
atis_aircraft,1,0,0,8,0,1,0,0,0
atis_ground_service,0,0,0,0,10,0,0,0,0
atis_airline,0,0,0,0,0,10,0,0,0
atis_abbreviation,0,0,0,0,0,0,8,0,2
atis_quantity,2,0,0,0,0,1,0,6,1
Fallback,0,0,0,0,0,0,0,0,0
