atis_flight, i want to fly from boston at 838 am and arrive in denver at 1110 in the morning
atis_flight, what flights are available from pittsburgh to baltimore on thursday morning
atis_flight, i need a flight tomorrow from columbus to minneapolis
atis_flight, show me the flights from pittsburgh to los angeles on thursday
atis_flight, all flights from boston to washington
atis_flight, show me the flights from dallas to san francisco
atis_flight, show me the flights from san diego to newark by way of houston
atis_flight, what is the cheapest flight from boston to bwi
atis_flight, all flights to baltimore after 6 pm
atis_flight, all flights from denver to pittsburgh leaving after 6 pm and before 7 pm
atis_flight_time, what is the arrival time in san francisco for the 755 am flight leaving washington
atis_flight_time, what are the times that you have planes leaving from san francisco going to pittsburgh on july seventh
atis_flight_time, on united airlines give me the flight times from boston to dallas
atis_flight_time, what are the schedule of flights from boston to san francisco for august first
atis_flight_time, what is the flight schedule of the f28 from pittsburgh to baltimore
atis_flight_time, show me times for flights from san francisco to atlanta
atis_flight_time, i would like the time of all flights from san francisco to pittsburgh on sunday
atis_flight_time, could you give me the schedule of flights for american and delta to dfw on august fifteenth
atis_flight_time, please list the flight times from pittsburgh to newark
atis_flight_time, please list the flight times from boston to pittsburgh
atis_airfare, cheapest airfare from tacoma to orlando
atis_airfare, round trip fares from pittsburgh to philadelphia under 1000 dollars
atis_airfare, show me the first class fares from boston to denver
atis_airfare, i'd like to have some information on a ticket from denver to pittsburgh and atlanta
atis_airfare, show me the cheapest round trip fare from baltimore to dallas
atis_airfare, fares and flights from pittsburgh to philadelphia
atis_airfare, what is the cost of a round trip flight from pittsburgh to atlanta beginning on april twenty fifth and returning on may sixth
atis_airfare, show me the fares from dallas to san francisco
atis_airfare, show me all the night fares between philadelphia and san francisco
atis_airfare, can you show me economy class one way fares for flights from oakland to dallas on december sixteenth
atis_aircraft, what kind of aircraft is used on a flight from cleveland to dallas
atis_aircraft, what kinds of planes are used by american airlines
atis_aircraft, what types of aircraft does delta fly
atis_aircraft, on the 8 am flight from san francisco to atlanta what type of aircraft is used
atis_aircraft, list aircraft types that fly between boston and san francisco
atis_aircraft, is there a plane from boston to washington
atis_aircraft, what airplane types fly from pittsburgh to baltimore
atis_aircraft, what's the smallest plane that flies from pittsburgh to baltimore on eight sixteen
atis_aircraft, repeating leaving denver to san francisco before 10 am what type of aircraft is used
atis_aircraft, what type of aircraft flies from pittsburgh to baltimore
atis_ground_service, what kind of ground transportation is available in denver
atis_ground_service, show me the ground transportation in denver
atis_ground_service, atlanta ground transportation
atis_ground_service, show me information on ground transportation for dallas
atis_ground_service, what is the ground transportation from philadelphia airport to the city proper
atis_ground_service, ground transportation in san jose
atis_ground_service, show me a list of ground transportation at denver
atis_ground_service, what is the transportation time from the airport to boston
atis_ground_service, what kinds of ground transportation is available in dallas fort worth
atis_ground_service, is there ground transportation available in denver
atis_airline, which airline serves denver pittsburgh and atlanta
atis_airline, show me the airlines with first class flights
atis_airline, which airline has the most arrivals in atlanta
atis_airline, what airlines fly from new york to milwaukee to los angeles
atis_airline, which airlines serve atlanta
atis_airline, could you please tell me the airlines that fly from toronto to san diego
atis_airline, which airlines have first class flights today
atis_airline, of all airlines which airline has the most arrivals in atlanta
atis_airline, which airline has the smallest plane leaving pittsburgh and arriving in baltimore on july fourth
atis_airline, show me airline abbreviations
atis_abbreviation, what is fare code h
atis_abbreviation, what is booking class c
atis_abbreviation, what does fare code q mean
atis_abbreviation, what is fare code qw
atis_abbreviation, what does the fare code f mean
atis_abbreviation, what is fare code h
atis_abbreviation, what does fare code qw mean
atis_abbreviation, what does mco stand for
atis_abbreviation, what's the difference between fare code q and fare code f
atis_abbreviation, what is mco
atis_quantity, please tell me how many nonstop flights there are from boston to atlanta
atis_quantity, how many flights does delta have with a class of service code f
atis_quantity, how many booking classes are there
atis_quantity, list the number of flights leaving boston for dallas fort worth before 9 am in the morning
atis_quantity, how many us air flights leave from washington
atis_quantity, how many flights go from dallas to baltimore on july nineteenth
atis_quantity, how many delta flights leave from washington
atis_quantity, how many flights does twa have in business class
atis_quantity, how many stops on continental 1765 from boston to san francisco
atis_quantity, how many flights does each airline have with business class service