atis_flight, i want to fly from boston at 838 am and arrive in denver at 1110 in the morning
atis_flight, what flights are available from pittsburgh to baltimore on thursday morning
atis_flight, i need a flight tomorrow from columbus to minneapolis
atis_flight, show me the flights from pittsburgh to los angeles on thursday
atis_flight, all flights from boston to washington
atis_flight, show me the flights from dallas to san francisco
atis_flight, show me the flights from san diego to newark by way of houston
atis_flight, what is the cheapest flight from boston to bwi
atis_flight, all flights to baltimore after 6 pm
atis_flight, all flights from denver to pittsburgh leaving after 6 pm and before 7 pm
atis_flight, i need information on flights for tuesday leaving baltimore for dallas dallas to boston and boston to baltimore
atis_flight, please give me the flights from boston to pittsburgh on thursday of next week
atis_flight, i would like to fly from denver to pittsburgh on united airlines
atis_flight, show me the flights from san diego to newark
atis_flight, please list all first class flights on united from denver to baltimore
atis_flight, i'd like to book a flight from atlanta to denver
atis_flight, show me all flights from boston to pittsburgh on wednesday of next week which leave boston after 2 o'clock pm
atis_flight, i also need service from dallas to boston arriving by noon
atis_flight, show me all flights from new york to milwaukee on northwest airlines departing at 720 am
atis_flight, flights from new york to miami
atis_flight, please find a flight on delta from philadelphia to san francisco and give me the flight numbers
atis_flight, i need a flight from dallas to san francisco
atis_flight, what are the flights from st. louis to burbank sunday evening
atis_flight, i'd like to arrange a flight from pittsburgh to atlanta
atis_flight, show flights from baltimore to san francisco between 6 pm and 8 pm on friday
atis_flight, i would like a list of round trip flights between indianapolis and orlando florida for the twenty seventh and the twenty eighth of december
atis_flight, pittsburgh to denver
atis_flight, show me all flights from boston to dallas fort worth both direct and connecting that arrive before noon
atis_flight, i need a flight from charlotte to newark leaving today evening
atis_flight, flights from newark to cleveland
atis_flight, what flights go from boston to pittsburgh after 6 o'clock next tuesday
atis_flight, does us air have any flights out of atlanta to denver
atis_flight, i'd like to know the shortest trip between boston and san francisco
atis_flight, i would like to see information for flights from san francisco leaving after 12 pm to pittsburgh on monday
atis_flight, what is the least expensive flight from denver to atlanta
atis_flight, i need to know information for flights leaving dallas on tuesday evening and returning to atlanta
atis_flight, what flight goes from denver to baltimore first class on united airlines arriving on may seventh
atis_flight, what flights do you have from burbank to tacoma washington
atis_flight, find the latest flight from san francisco to atlanta that serves a meal
atis_flight, i would like to make a reservation for a flight to denver from philadelphia on this coming sunday
atis_flight, show me flights from boston to denver on wednesday
atis_flight, show me the flights from boston to baltimore
atis_flight, please give me the flights from san francisco to washington dc
atis_flight, i need information from denver to pittsburgh
atis_flight, from seattle to salt lake city
atis_flight, what is the earliest flight from boston to bwi that serves a snack
atis_flight, give me the flights leaving denver august ninth coming back to boston
atis_flight, list all the flights that fly into general mitchell international
atis_flight, what flights fly from denver to san francisco on monday tuesday wednesday thursday and friday
atis_flight, list all flights from indianapolis to seattle
atis_flight_time, what is the arrival time in san francisco for the 755 am flight leaving washington
atis_flight_time, what are the times that you have planes leaving from san francisco going to pittsburgh on july seventh
atis_flight_time, on united airlines give me the flight times from boston to dallas
atis_flight_time, what are the schedule of flights from boston to san francisco for august first
atis_flight_time, what is the flight schedule of the f28 from pittsburgh to baltimore
atis_flight_time, show me times for flights from san francisco to atlanta
atis_flight_time, i would like the time of all flights from san francisco to pittsburgh on sunday
atis_flight_time, could you give me the schedule of flights for american and delta to dfw on august fifteenth
atis_flight_time, please list the flight times from pittsburgh to newark
atis_flight_time, please list the flight times from boston to pittsburgh
atis_flight_time, please list the flight schedule from baltimore to san francisco on friday nights
atis_flight_time, what times on wednesday could i take a plane from denver to oakland
atis_flight_time, please tell me the times of the flights between boston and baltimore
atis_flight_time, show me times for coach flights between boston and baltimore on wednesday
atis_flight_time, show me the schedule for airlines leaving pittsburgh going to san francisco for next monday
atis_flight_time, what is the departure time of the latest flight of united airlines from denver to boston
atis_flight_time, please list the flight times from pittsburgh to newark
atis_flight_time, what times does continental depart from boston to san francisco
atis_flight_time, what time does flight aa 459 depart
atis_flight_time, please list the flight times from newark to boston
atis_flight_time, what is the minimum connection time for houston intercontinental
atis_flight_time, now i'd like a schedule for the flights on tuesday morning from oakland no from dallas fort worth to atlanta
atis_flight_time, what is the earliest departure time from boston to denver
atis_flight_time, please list the flight times for boston to pittsburgh
atis_flight_time, show me the flight schedule from pittsburgh to san francisco
atis_flight_time, what time does the tuesday morning 755 flight leaving washington arrive in san francisco
atis_flight_time, i would like a schedule of flights from san francisco to boston on wednesday
atis_flight_time, what time are the flights leaving from denver to pittsburgh on july seventh
atis_flight_time, i would like a schedule of flights from denver to san francisco on tuesday
atis_flight_time, when does continental fly from philadelphia to denver on sundays
atis_flight_time, what time are the flights from baltimore to san francisco
atis_flight_time, please give me the flight times the morning on united airlines for september twentieth from philadelphia to san francisco
atis_flight_time, what's the schedule of flights from atlanta to boston on august first
atis_flight_time, what is the total schedule for delta's flights to all airports
atis_flight_time, i would like the time your earliest flight from washington to philadelphia
atis_flight_time, what is the schedule of flights from boston to denver next monday
atis_flight_time, what time does the flight leave denver going to san francisco on continental airlines
atis_flight_time, what is the schedule for flights between pittsburgh and boston on the evening of july ninth
atis_flight_time, what is delta's schedule of morning flights to atlanta
atis_flight_time, what is american's schedule of morning flights to atlanta
atis_flight_time, what is the schedule of ground transportation from washington airport into downtown
atis_flight_time, what time does twa depart from boston to go to san francisco
atis_flight_time, what time does the earliest flight which goes from atlanta to denver leave
atis_flight_time, i would like the evening schedule of flights from san francisco to washington
atis_flight_time, please give me the flight times i would like to fly from boston to baltimore in the morning before 8
atis_flight_time, what times does the late afternoon flight leave from washington for denver
atis_flight_time, what time are flights from denver to san francisco on continental airlines
atis_flight_time, list departure times from denver to philadelphia which are later than 10 o'clock and earlier than 2 pm
atis_flight_time, i would like the time of your earliest flight in the morning from philadelphia to washington on american airlines
atis_flight_time, please list the flight times from newark to boston
atis_airfare, cheapest airfare from tacoma to orlando
atis_airfare, round trip fares from pittsburgh to philadelphia under 1000 dollars
atis_airfare, show me the first class fares from boston to denver
atis_airfare, i'd like to have some information on a ticket from denver to pittsburgh and atlanta
atis_airfare, show me the cheapest round trip fare from baltimore to dallas
atis_airfare, fares and flights from pittsburgh to philadelphia
atis_airfare, what is the cost of a round trip flight from pittsburgh to atlanta beginning on april twenty fifth and returning on may sixth
atis_airfare, show me the fares from dallas to san francisco
atis_airfare, show me all the night fares between philadelphia and san francisco
atis_airfare, can you show me economy class one way fares for flights from oakland to dallas on december sixteenth
atis_airfare, what are the coach fares from charlotte to la wednesday night
atis_airfare, what is the first class fare on united flight 352 from denver to boston
atis_airfare, round trip fares new york to san jose
atis_airfare, what is the cost of a first class ticket from baltimore to dallas
atis_airfare, what is the economy thrift fare from boston to washington
atis_airfare, how much does it cost to go from downtown to logan airport
atis_airfare, what is the fare from san francisco to dallas fort worth on delta flight 852
atis_airfare, list the fares of us air flights from boston to philadelphia
atis_airfare, show me fares from seattle to minneapolis
atis_airfare, how much is a round trip fare from indianapolis to seattle
atis_airfare, show me the fares from dallas to san francisco
atis_airfare, i need 2 first class tickets from dallas fort worth to san francisco
atis_airfare, show me the fares on all flights round trip from pittsburgh to oakland
atis_airfare, what round trip tickets are there from cleveland to miami on us air that arrive before 4 pm
atis_airfare, how much is a flight from washington to boston
atis_airfare, what is the fare going from atlanta to boston one way on november seventh
atis_airfare, show me fares from baltimore to philadelphia
atis_airfare, what are the round trip fares for flights from denver to philadelphia arriving after 1700 on continental
atis_airfare, i would like the least expensive airfare flight on sunday to pittsburgh from san francisco
atis_airfare, first class round trip airfare from indianapolis to memphis
atis_airfare, what are the fares from newark to la monday and wednesday
atis_airfare, please show me round trip tickets from denver to oakland
atis_airfare, what are the lowest one way fares from atlanta to denver
atis_airfare, how much is a round trip fare from memphis to seattle
atis_airfare, how much does dl 746 cost
atis_airfare, what's the lowest round trip fare from dallas to atlanta
atis_airfare, economy fares new york to miami round trip
atis_airfare, what is the cheapest fare i can get from dallas to denver
atis_airfare, could you please find me the cheapest one way fare from boston to philadelphia
atis_airfare, what's the cheapest one way ticket from baltimore to atlanta
atis_airfare, i want a one way ticket from dallas to baltimore
atis_airfare, what's the lowest one way fare from pittsburgh to denver
atis_airfare, how much does the american airlines flight 71 from dallas to san francisco cost
atis_airfare, could you tell me the cheapest fare from atlanta to boston on thirty first of august
atis_airfare, what is the cost of flight dl 106 from philadelphia to boston
atis_airfare, what is the cheapest round trip fare between boston and san francisco
atis_airfare, what is the fare from boston to oakland on united airlines
atis_airfare, show me round trip fares from denver to philadelphia
atis_airfare, show me round trip fares from san jose to salt lake city
atis_airfare, show me us air fares for next sunday from miami to cleveland
atis_aircraft, what kind of aircraft is used on a flight from cleveland to dallas
atis_aircraft, what kinds of planes are used by american airlines
atis_aircraft, what types of aircraft does delta fly
atis_aircraft, on the 8 am flight from san francisco to atlanta what type of aircraft is used
atis_aircraft, list aircraft types that fly between boston and san francisco
atis_aircraft, is there a plane from boston to washington
atis_aircraft, what airplane types fly from pittsburgh to baltimore
atis_aircraft, what's the smallest plane that flies from pittsburgh to baltimore on eight sixteen
atis_aircraft, repeating leaving denver to san francisco before 10 am what type of aircraft is used
atis_aircraft, what type of aircraft flies from pittsburgh to baltimore
atis_aircraft, what kind of airplane is flight ua 281 from boston to denver
atis_aircraft, what type of plane is an m80
atis_aircraft, show me the type of aircraft that cp uses
atis_aircraft, what type of aircraft does eastern fly from atlanta to denver before 6 pm
atis_aircraft, what type of aircraft leaving after 2 pm from boston to oakland
atis_aircraft, kindly give me the type of aircraft used to fly from atlanta to denver
atis_aircraft, i'd like to know what type of plane flies from boston to dallas fort worth after 530
atis_aircraft, show me the aircraft that canadian airlines uses
atis_aircraft, what kind of aircraft is used on the first class american airlines flight from philadelphia to san francisco stopping in dallas
atis_aircraft, what kind of aircraft does delta fly before 8 am on august second from boston to denver
atis_aircraft, what kind of airplane goes from philadelphia to san francisco monday stopping in dallas in the afternoon first class flight
atis_aircraft, what type of aircraft is used on american airline flight 315
atis_aircraft, i want to go and take a plane in atlanta and fly to boston
atis_aircraft, show me the aircraft that canadian airlines uses
atis_aircraft, what is the type of aircraft for united flight 21
atis_aircraft, what aircraft is used on delta flight 1222 from kansas city to salt lake city
atis_aircraft, what kind of plane flies from boston to pittsburgh after noon
atis_aircraft, display types of aircraft departing from cleveland to dallas before noon
atis_aircraft, what planes does united use
atis_aircraft, what type of aircraft leaves from boston to washington dc at 9 am
atis_aircraft, what planes are used by twa
atis_aircraft, please inform me the type of aircraft used on a flight from atlanta to denver before 12 o'clock noon
atis_aircraft, what kinds of planes are used by midway airlines
atis_aircraft, i'm going to leave philadelphia and i want to go to san francisco and i want to fly first class american and i want a stop in dallas can you please tell me what type of aircraft you will be flying
atis_aircraft, what type of aircraft does eastern fly from atlanta to denver before 6 pm
atis_aircraft, well i'll try last time tell me the kind of aircraft united airlines flies from denver to san francisco before 10 o'clock in the morning
atis_aircraft, what kind of aircraft does delta use before 8 am on august second from boston to denver
atis_aircraft, i need a plane that arrives in san francisco by 9 o'clock pm on friday and leaves from baltimore
atis_aircraft, okay i would like to know the type of aircraft used on a flight from cleveland to dallas please
atis_aircraft, does delta aircraft fly dc10
atis_aircraft, what kind of aircraft is used on the first class american airlines flight from philadelphia to san francisco with a dallas stopover
atis_aircraft, what type of aircraft leaves from boston to washington dc at 9 am during a weekday
atis_aircraft, sure i'd like to determine what aircraft are use on july seventh leaving from boston and arriving in atlanta on july seventh
atis_aircraft, what type of aircraft leaves from boston to washington dc before 9 am
atis_aircraft, what first class airplane goes from philadelphia to san francisco and stops in dallas in the afternoon on monday
atis_aircraft, what's the next smallest plane after a turboprop
atis_aircraft, show me the type of aircraft that cp uses
atis_aircraft, i would like a to know the type of aircraft leaving from atlanta bound to boston on friday this week
atis_aircraft, leaving denver flying to san francisco before 10 am what type of aircraft is used
atis_aircraft, what kind of airplane goes from boston to san francisco before noon
atis_ground_service, what kind of ground transportation is available in denver
atis_ground_service, show me the ground transportation in denver
atis_ground_service, atlanta ground transportation
atis_ground_service, show me information on ground transportation for dallas
atis_ground_service, what is the ground transportation from philadelphia airport to the city proper
atis_ground_service, ground transportation in san jose
atis_ground_service, show me a list of ground transportation at denver
atis_ground_service, what is the transportation time from the airport to boston
atis_ground_service, what kinds of ground transportation is available in dallas fort worth
atis_ground_service, is there ground transportation available in denver
atis_ground_service, what kind of ground transportation can you offer me in seattle
atis_ground_service, show me the car rentals in baltimore
atis_ground_service, how much time does it take to go between the airport and downtown by ground transportation in dallas
atis_ground_service, ground transportation minneapolis
atis_ground_service, is there ground transportation in boston from the airport
atis_ground_service, what kind of ground transportation is there in washington dc
atis_ground_service, what is the schedule of ground transportation from the airport in philadelphia into downtown
atis_ground_service, ground transportation in westchester county
atis_ground_service, ground transportation denver
atis_ground_service, what is the available ground transportation between the airport in denver and downtown
atis_ground_service, what type of ground transportation is available between the airport and downtown san francisco
atis_ground_service, show me ground transportation in dallas please
atis_ground_service, please list ground transport in san francisco
atis_ground_service, is there ground transportation from san diego airport to the downtown area
atis_ground_service, show me ground transportation in san francisco
atis_ground_service, i need ground transportation in dallas please show me what's available
atis_ground_service, is there ground transportation in oakland
atis_ground_service, what's the ground transportation like at pittsburgh
atis_ground_service, show me ground transportation information for pittsburgh
atis_ground_service, please show me ground transportation in denver
atis_ground_service, i would like information on ground transportation in the city of atlanta from airport to downtown
atis_ground_service, tell me about ground transportation in st. petersburg airport
atis_ground_service, show me ground transportation in baltimore
atis_ground_service, is there ground transportation from the airport to downtown phoenix
atis_ground_service, does the phoenix airport have ground transportation to and from downtown
atis_ground_service, ground transportation oakland
atis_ground_service, is there ground transportation from the milwaukee airport to the downtown area
atis_ground_service, show me ground transportation information for san francisco
atis_ground_service, show ground transportation for pittsburgh
atis_ground_service, is there limousine service available at baltimore airport
atis_ground_service, what are the ground transportation services in philadelphia
atis_ground_service, is there ground transportation from atlanta airport to downtown atlanta
atis_ground_service, are there any limousines or taxi services available at the boston airport
atis_ground_service, can i see ground transportation from long beach airport to downtown
atis_ground_service, can you help me with ground transportation information i need to get from the airport in philadelphia to downtown philadelphia
atis_ground_service, what ground transportation is available in boston
atis_ground_service, show me ground transportation for boston
atis_ground_service, show me ground transportation in philadelphia on monday morning
atis_ground_service, ground transportation denver
atis_ground_service, what ground transportation is available at denver airport
atis_airline, which airline serves denver pittsburgh and atlanta
atis_airline, show me the airlines with first class flights
atis_airline, which airline has the most arrivals in atlanta
atis_airline, what airlines fly from new york to milwaukee to los angeles
atis_airline, which airlines serve atlanta
atis_airline, could you please tell me the airlines that fly from toronto to san diego
atis_airline, which airlines have first class flights today
atis_airline, of all airlines which airline has the most arrivals in atlanta
atis_airline, which airline has the smallest plane leaving pittsburgh and arriving in baltimore on july fourth
atis_airline, show me airline abbreviations
atis_airline, can you list all the airlines that have flights from boston to san francisco
atis_airline, which airline can fly me from atlanta to denver to san francisco
atis_airline, which airline provides business class flights
atis_airline, which airlines fly between boston and pittsburgh
atis_airline, which airlines have flights between philadelphia and pittsburgh
atis_airline, show me the airlines between toronto and denver
atis_airline, which airlines are represented in the database
atis_airline, what is airline us
atis_airline, show me the airlines from love field
atis_airline, what airlines fly between boston and san francisco and stop in denver
atis_airline, airline code as
atis_airline, what airlines fly from boston to pittsburgh
atis_airline, please tell me which airline has the most departures from atlanta
atis_airline, which airlines fly from boston to washington dc but stopover in some other city
atis_airline, please list all airline flights between denver and boston
atis_airline, airlines that fly to miami from new york on friday
atis_airline, what airlines go from atlanta to baltimore
atis_airline, what airlines have business class
atis_airline, show me first class airlines from san francisco to pittsburgh on next tuesday first class only
atis_airline, what airlines fly between boston and san francisco
atis_airline, do you have any airlines that would stop at denver on the way from baltimore to san francisco
atis_airline, does any airline have an afternoon flight from boston to oakland
atis_airline, what airlines fly from boston to atlanta
atis_airline, what is airline dl
atis_airline, which airlines fly between baltimore and san francisco
atis_airline, what airlines fly from boston to denver
atis_airline, what kind of airline is flight ua 281 from boston to denver
atis_airline, which airlines fly between boston and philadelphia
atis_airline, which airline is the cheapest to fly from dallas to baltimore on december twenty fourth
atis_airline, show me the airlines for flights to or from love field
atis_airline, show me the airlines that fly between toronto and denver
atis_airline, which airlines have flights from san francisco to washington by way of indianapolis
atis_airline, show all airlines with flights between denver and dallas
atis_airline, please show me airlines with service from boston to denver
atis_airline, what is airline nw
atis_airline, what airline is the flight originating in atlanta on november seventh at noon and arriving in san francisco at 210 pm
atis_airline, what airlines service pittsburgh airport
atis_airline, what airlines fly from boston to pittsburgh
atis_airline, what airlines flies out of atlanta
atis_airline, what airlines fly boston to baltimore
atis_abbreviation, what is fare code h
atis_abbreviation, what is booking class c
atis_abbreviation, what does fare code q mean
atis_abbreviation, what is fare code qw
atis_abbreviation, what does the fare code f mean
atis_abbreviation, what is fare code h
atis_abbreviation, what does fare code qw mean
atis_abbreviation, what does mco stand for
atis_abbreviation, what's the difference between fare code q and fare code f
atis_abbreviation, what is mco
atis_abbreviation, what is the yn code
atis_abbreviation, what is ord
atis_abbreviation, what's fare code yn
atis_abbreviation, what does restriction ap 57 mean
atis_abbreviation, what is bna
atis_abbreviation, explain the restriction ap 80
atis_abbreviation, what does the abbreviation dl mean
atis_abbreviation, what is the fare code y and what is the fare code h
atis_abbreviation, what does ua stand for
atis_abbreviation, what is fare code m
atis_abbreviation, what is sa
atis_abbreviation, what does fn under fare code mean
atis_abbreviation, what is hp
atis_abbreviation, what does fare code qo mean
atis_abbreviation, what does the abbreviation co mean
atis_abbreviation, explain the restriction ap 57
atis_abbreviation, what does us stand for
atis_abbreviation, what is hp
atis_abbreviation, define airline us
atis_abbreviation, code ff
atis_abbreviation, what does ea mean
atis_abbreviation, what does the abbreviation ua mean
atis_abbreviation, what does code y stand for
atis_abbreviation, what is bur
atis_abbreviation, what does ff mean
atis_abbreviation, explain restriction ap please
atis_abbreviation, what is restriction ap 80
atis_abbreviation, what is restriction ap 57
atis_abbreviation, what does d s stand for for meals
atis_abbreviation, what is fare code qo mean
atis_abbreviation, what is fare code h
atis_abbreviation, what does ewr stand for
atis_abbreviation, what does ls stand for
atis_abbreviation, what is mco
atis_abbreviation, what does ea mean
atis_abbreviation, what does fare code y mean
atis_abbreviation, what is the ap 57 restriction
atis_abbreviation, what does s designate as a meal
atis_abbreviation, what does hou mean
atis_abbreviation, what's the difference between fare code q and fare code b
atis_quantity, please tell me how many nonstop flights there are from boston to atlanta
atis_quantity, how many flights does delta have with a class of service code f
atis_quantity, how many booking classes are there
atis_quantity, list the number of flights leaving boston for dallas fort worth before 9 am in the morning
atis_quantity, how many us air flights leave from washington
atis_quantity, how many flights go from dallas to baltimore on july nineteenth
atis_quantity, how many delta flights leave from washington
atis_quantity, how many flights does twa have in business class
atis_quantity, how many stops on continental 1765 from boston to san francisco
atis_quantity, how many flights does each airline have with business class service
atis_quantity, how many airlines have flights with service class yn
atis_quantity, how many united flights are there from san francisco please
atis_quantity, how many airports does oakland have
atis_quantity, how many first class flights does united have today
atis_quantity, how many daily us air flights are there between philadelphia and pittsburgh
atis_quantity, how many first class flights does delta have today
atis_quantity, how many flights does each airline have with first class service
atis_quantity, how many flights does american airlines have from boston to atlanta
atis_quantity, how many united flights are there to san francisco
atis_quantity, list the total number of flights to all airports by delta
atis_quantity, how many fares are there one way from tacoma to montreal
atis_quantity, how many first class flights does united have leaving from all airports today
atis_quantity, how many flights does each airline have with booking class k
atis_quantity, how many cities are served by delta airlines with first class flights
atis_quantity, how many fare codes belong to economy class
atis_quantity, how many first class flights does united airlines have departing from boston today
atis_quantity, how many different flight classes are there
atis_quantity, how many nonstop flights going from dallas to oakland july twenty seventh
atis_quantity, how many of delta's night flights are first class
atis_quantity, how many american airline flights leave denver june tenth
atis_quantity, how many first class flights does united have leaving from all cities today
atis_quantity, how many flights arrive at general mitchell international
atis_quantity, list the total number of flights between all airports by delta
atis_quantity, how many flights has continental into and out of atlanta
atis_quantity, how many first class flights are provided by american airlines
atis_quantity, how many airlines fly from new york to los angeles by way of milwaukee
atis_quantity, how many cities are served by continental with first class flights
atis_quantity, how many fares are there one way from tacoma to montreal
atis_quantity, how many flights does american airlines have with a class of service code f
atis_quantity, how many flights does twa have with business class
atis_quantity, how many cities are served by eastern with first class flights
atis_quantity, how many cities are served by american airline with first class flights
atis_quantity, how many cities are served by lufthansa with first class flights
atis_quantity, how many first class flights does delta airlines have
atis_quantity, how many flights does continental airlines have with a class of service code f
atis_quantity, how many cities are served by twa with first class flights
atis_quantity, how many first class flights does united have leaving from all cities today
atis_quantity, how many flights does eastern airlines have from boston to atlanta
atis_quantity, how many flights come from denver to baltimore on july nineteenth
atis_quantity, how many stops are on all flights from boston to san francisco that depart before 12 o'clock noon